C_GetFunctionList
C_Initialize	
C_GetInfo		
C_GetSlotList	
C_GetSlotInfo	
C_GetTokenInfo	
C_GetMechanismList
C_OpenSession	
C_CloseSession	
C_FindObjectsInit
C_FindObjects	
C_FindObjectsFinal
C_GetAttributeValue
C_SignInit		
C_Sign			


CKO_NETSCAPE_TRUST
CKO_CERTIFICATE
CKO_PRIVATE_KEY

CKA_CLASS  
CKA_TOKEN  
CKA_PRIVATE
CKA_LABEL
CKA_VALUE
CKA_CERTIFICATE_TYPE
CKA_ISSUER          
CKA_SERIAL_NUMBER   
CKA_SUBJECT 
CKA_ID      
CKA_KEY_TYPE
CKA_MODULUS
CKA_ALWAYS_AUTHENTICATE

